{
  "project_info": {
    "project_number": "529766751210",
    "project_id": "revistaojk-148618"
  },
  "client": [
    {
      "client_info": {
        "mobilesdk_app_id": "1:529766751210:android:b9f668a6cea0d80f",
        "android_client_info": {
          "package_name": "br.com.revistaojk.app"
        }
      },
      "oauth_client": [],
      "api_key": [
        {
          "current_key": "AIzaSyAJVPtogyZOWUgIzsgiKQL_3bgGoEiIBqY"
        }
      ],
      "services": {
        "analytics_service": {
          "status": 2,
          "analytics_property": {
            "tracking_id": "UA-91003167-1"
          }
        },
        "appinvite_service": {
          "status": 1,
          "other_platform_oauth_client": []
        },
        "ads_service": {
          "status": 1
        }
      }
    }
  ],
  "configuration_version": "1"
}